{
  "pre_processing": {
    "window_offset": 4,
    "outlier_factor": -1,
    "scoring_family": "PFASUM_DECIMAL",
    "scoring_version": 60,
    "scoring_normalise": true
  },
  "optimiser": {
    "learning_rate": 1e-3,
    "beta1": 9e-1,
    "beta2": 999e-3,
    "epsilon": 1e-8,
    "weight_decay": 0,
    "amsgrad": false
  },
  "architecture": {
    "input_dropout": 0,
    "extract_size": 128,
    "extract_layers": 1,
    "extract_dropout": 0,
    "scan_size": 512,
    "scan_layers": 1,
    "scan_dropout": 0,
    "project_dropout": 0.50
  },
  "run": {
    "seed": 42,
    "cuda": true,
    "epochs": 100,
    "evaluation_interval": 1,
    "batch_size": 4,
    "shuffle": true,
    "weight_classes": true,
    "weight_classes_normalised": true,
    "weight_classes_deleted": false
  },
  "data": {
    "training_file_path": "resources/data/train_all.csv",
    "training_sample_separator": ";",
    "training_distinct_samples": true,
    "evaluation_file_path": "resources/data/eval_all.csv",
    "evaluation_sample_separator": ";",
    "evaluation_distinct_samples": true
  },
  "log": {
    "checkpoint_directory": "log/checkpoints/defaults/",
    "summary_directory": "log/summaries/defaults/",
    "overwrite": false
  }
}
